^C:\USERS\JAKUB\DROPBOX\VS PROJECTS\MATODY NUMERYCZNE\ZESTAW 1\ZADANIE 1\DEBUG\ZADANIE_1.OBJ
C:\USERS\JAKUB\DROPBOX\VS PROJECTS\MATODY NUMERYCZNE\ZESTAW 1\ZADANIE 1\DEBUG\ZADANIE 1.ILK
C:\USERS\JAKUB\DROPBOX\VS PROJECTS\MATODY NUMERYCZNE\ZESTAW 1\ZADANIE 1\DEBUG\ZADANIE 1.EXE
C:\USERS\JAKUB\DROPBOX\VS PROJECTS\MATODY NUMERYCZNE\ZESTAW 1\ZADANIE 1\DEBUG\ZADANIE 1.PDB
