^C:\USERS\JAKUB\DROPBOX\VS PROJECTS\MATODY NUMERYCZNE\ZESTAW 1\ZADANIE 2\DEBUG\ZADANIE_2.OBJ
C:\USERS\JAKUB\DROPBOX\VS PROJECTS\MATODY NUMERYCZNE\ZESTAW 1\ZADANIE 2\DEBUG\ZADANIE 2.ILK
C:\USERS\JAKUB\DROPBOX\VS PROJECTS\MATODY NUMERYCZNE\ZESTAW 1\ZADANIE 2\DEBUG\ZADANIE 2.EXE
C:\USERS\JAKUB\DROPBOX\VS PROJECTS\MATODY NUMERYCZNE\ZESTAW 1\ZADANIE 2\DEBUG\ZADANIE 2.PDB
