^C:\USERS\JAKUB\DROPBOX\VS PROJECTS\MATODY NUMERYCZNE\ZESTAW 1\ZADANIE 4\ZADANIE 4.CPP
C:\USERS\JAKUB\DROPBOX\VS PROJECTS\MATODY NUMERYCZNE\ZESTAW 1\ZADANIE 4\DEBUG\VC140.PDB
C:\USERS\JAKUB\DROPBOX\VS PROJECTS\MATODY NUMERYCZNE\ZESTAW 1\ZADANIE 4\DEBUG\VC140.IDB
C:\USERS\JAKUB\DROPBOX\VS PROJECTS\MATODY NUMERYCZNE\ZESTAW 1\ZADANIE 4\DEBUG\ZADANIE 4.OBJ
