X	Real Tan	Approx Tan
0	0	0
0.0174533	0.0174551	0.0174551
0.0349066	0.0349208	0.0349208
0.0523599	0.0524078	0.0524078
0.0698132	0.0699268	0.0699268
0.0872665	0.0874887	0.0874887
0.10472	0.105104	0.105104
0.122173	0.122785	0.122785
0.139626	0.140541	0.140541
0.15708	0.158384	0.158384
0.174533	0.176327	0.176327
0.191986	0.19438	0.19438
0.20944	0.212557	0.212557
0.226893	0.230868	0.230868
0.244346	0.249328	0.249328
0.261799	0.267949	0.267949
0.279253	0.286745	0.286745
0.296706	0.305731	0.305731
0.314159	0.32492	0.32492
0.331613	0.344328	0.344328
0.349066	0.36397	0.36397
0.366519	0.383864	0.383864
0.383972	0.404026	0.404026
0.401426	0.424475	0.424475
0.418879	0.445229	0.445229
0.436332	0.466308	0.466308
0.453786	0.487733	0.487733
0.471239	0.509525	0.509525
0.488692	0.531709	0.531709
0.506145	0.554309	0.554309
0.523599	0.57735	0.57735
0.541052	0.600861	0.600861
0.558505	0.624869	0.624869
0.575959	0.649408	0.649408
0.593412	0.674509	0.674509
0.610865	0.700208	0.700208
0.628319	0.726543	0.726543
0.645772	0.753554	0.753554
0.663225	0.781286	0.781286
0.680678	0.809784	0.809784
0.698132	0.8391	0.8391
0.715585	0.869287	0.869287
0.733038	0.900404	0.900404
0.750492	0.932515	0.932515
0.767945	0.965689	0.965689
0.785398	1	1
0.802851	1.03553	1.03553
0.820305	1.07237	1.07237
0.837758	1.11061	1.11061
0.855211	1.15037	1.15037
0.872665	1.19175	1.19175
0.890118	1.2349	1.2349
0.907571	1.27994	1.27994
0.925025	1.32704	1.32704
0.942478	1.37638	1.37638
0.959931	1.42815	1.42815
0.977384	1.48256	1.48256
0.994838	1.53986	1.53986
1.01229	1.60033	1.60033
1.02974	1.66428	1.66428
1.0472	1.73205	1.73205
1.06465	1.80405	1.80405
1.0821	1.88073	1.88073
1.09956	1.96261	1.96261
1.11701	2.0503	2.0503
1.13446	2.14451	2.14451
1.15192	2.24604	2.24604
1.16937	2.35585	2.35585
1.18682	2.47509	2.47509
1.20428	2.60509	2.60509
1.22173	2.74748	2.74748
1.23918	2.90421	2.90421
1.25664	3.07768	3.07768
1.27409	3.27085	3.27085
1.29154	3.48741	3.48741
1.309	3.73205	3.73205
1.32645	4.01078	4.01078
1.3439	4.33148	4.33148
1.36136	4.70463	4.70463
1.37881	5.14455	5.14455
1.39626	5.67128	5.67128
1.41372	6.31375	6.31375
1.43117	7.11537	7.11537
1.44862	8.14435	8.14435
1.46608	9.51436	9.51436
1.48353	11.4301	11.4301
1.50098	14.3007	14.3007
1.51844	19.0811	19.0811
1.53589	28.6363	28.6363
1.55334	57.29	57.29
1.5708	-5.83048e+14	-5.6295e+14
1.58825	-57.29	-57.29
1.6057	-28.6363	-28.6363
1.62316	-19.0811	-19.0811
1.64061	-14.3007	-14.3007
1.65806	-11.4301	-11.4301
1.67552	-9.51436	-9.51436
1.69297	-8.14435	-8.14435
1.71042	-7.11537	-7.11537
1.72788	-6.31375	-6.31375
1.74533	-5.67128	-5.67128
1.76278	-5.14455	-5.14455
1.78024	-4.70463	-4.70463
1.79769	-4.33148	-4.33148
1.81514	-4.01078	-4.01078
1.8326	-3.73205	-3.73205
1.85005	-3.48741	-3.48741
1.8675	-3.27085	-3.27085
1.88496	-3.07768	-3.07768
1.90241	-2.90421	-2.90421
1.91986	-2.74748	-2.74748
1.93732	-2.60509	-2.60509
1.95477	-2.47509	-2.47509
1.97222	-2.35585	-2.35585
1.98968	-2.24604	-2.24604
2.00713	-2.14451	-2.14451
2.02458	-2.0503	-2.0503
2.04204	-1.96261	-1.96261
2.05949	-1.88073	-1.88073
2.07694	-1.80405	-1.80405
2.0944	-1.73205	-1.73205
2.11185	-1.66428	-1.66428
2.1293	-1.60033	-1.60033
2.14675	-1.53986	-1.53986
2.16421	-1.48256	-1.48256
2.18166	-1.42815	-1.42815
2.19911	-1.37638	-1.37638
2.21657	-1.32704	-1.32704
2.23402	-1.27994	-1.27994
2.25147	-1.2349	-1.2349
2.26893	-1.19175	-1.19175
2.28638	-1.15037	-1.15037
2.30383	-1.11061	-1.11061
2.32129	-1.07237	-1.07237
2.33874	-1.03553	-1.03553
2.35619	-1	-1
2.37365	-0.965689	-0.965689
2.3911	-0.932515	-0.932515
2.40855	-0.900404	-0.900404
2.42601	-0.869287	-0.869287
2.44346	-0.8391	-0.8391
2.46091	-0.809784	-0.809784
2.47837	-0.781286	-0.781286
2.49582	-0.753554	-0.753554
2.51327	-0.726543	-0.726543
2.53073	-0.700208	-0.700208
2.54818	-0.674509	-0.674509
2.56563	-0.649408	-0.649408
2.58309	-0.624869	-0.624869
2.60054	-0.600861	-0.600861
2.61799	-0.57735	-0.57735
2.63545	-0.554309	-0.554309
2.6529	-0.531709	-0.531709
2.67035	-0.509525	-0.509525
2.68781	-0.487733	-0.487733
2.70526	-0.466308	-0.466308
2.72271	-0.445229	-0.445229
2.74017	-0.424475	-0.424475
2.75762	-0.404026	-0.404026
2.77507	-0.383864	-0.383864
2.79253	-0.36397	-0.36397
2.80998	-0.344328	-0.344328
2.82743	-0.32492	-0.32492
2.84489	-0.305731	-0.305731
2.86234	-0.286745	-0.286745
2.87979	-0.267949	-0.267949
2.89725	-0.249328	-0.249328
2.9147	-0.230868	-0.230868
2.93215	-0.212557	-0.212557
2.94961	-0.19438	-0.19438
2.96706	-0.176327	-0.176327
2.98451	-0.158384	-0.158384
3.00197	-0.140541	-0.140541
3.01942	-0.122785	-0.122785
3.03687	-0.105104	-0.105104
3.05433	-0.0874887	-0.0874887
3.07178	-0.0699268	-0.0699268
3.08923	-0.0524078	-0.0524078
3.10669	-0.0349208	-0.0349208
3.12414	-0.0174551	-0.0174551
3.14159	-1.07806e-14	-1.15117e-14
3.15905	0.0174551	0.0174551
3.1765	0.0349208	0.0349208
3.19395	0.0524078	0.0524078
3.21141	0.0699268	0.0699268
3.22886	0.0874887	0.0874887
3.24631	0.105104	0.105104
3.26377	0.122785	0.122785
3.28122	0.140541	0.140541
3.29867	0.158384	0.158384
3.31613	0.176327	0.176327
3.33358	0.19438	0.19438
3.35103	0.212557	0.212557
3.36849	0.230868	0.230868
3.38594	0.249328	0.249328
3.40339	0.267949	0.267949
3.42085	0.286745	0.286745
3.4383	0.305731	0.305731
3.45575	0.32492	0.32492
3.47321	0.344328	0.344328
3.49066	0.36397	0.36397
3.50811	0.383864	0.383864
3.52557	0.404026	0.404026
3.54302	0.424475	0.424475
3.56047	0.445229	0.445229
3.57792	0.466308	0.466308
3.59538	0.487733	0.487733
3.61283	0.509525	0.509525
3.63028	0.531709	0.531709
3.64774	0.554309	0.554309
3.66519	0.57735	0.57735
3.68264	0.600861	0.600861
3.7001	0.624869	0.624869
3.71755	0.649408	0.649408
3.735	0.674509	0.674509
3.75246	0.700208	0.700208
3.76991	0.726543	0.726543
3.78736	0.753554	0.753554
3.80482	0.781286	0.781286
3.82227	0.809784	0.809784
3.83972	0.8391	0.8391
3.85718	0.869287	0.869287
3.87463	0.900404	0.900404
3.89208	0.932515	0.932515
3.90954	0.965689	0.965689
3.92699	1	1
3.94444	1.03553	1.03553
3.9619	1.07237	1.07237
3.97935	1.11061	1.11061
3.9968	1.15037	1.15037
4.01426	1.19175	1.19175
4.03171	1.2349	1.2349
4.04916	1.27994	1.27994
4.06662	1.32704	1.32704
4.08407	1.37638	1.37638
4.10152	1.42815	1.42815
4.11898	1.48256	1.48256
4.13643	1.53986	1.53986
4.15388	1.60033	1.60033
4.17134	1.66428	1.66428
4.18879	1.73205	1.73205
4.20624	1.80405	1.80405
4.2237	1.88073	1.88073
4.24115	1.96261	1.96261
4.2586	2.0503	2.0503
4.27606	2.14451	2.14451
4.29351	2.24604	2.24604
4.31096	2.35585	2.35585
4.32842	2.47509	2.47509
4.34587	2.60509	2.60509
4.36332	2.74748	2.74748
4.38078	2.90421	2.90421
4.39823	3.07768	3.07768
4.41568	3.27085	3.27085
4.43314	3.48741	3.48741
4.45059	3.73205	3.73205
4.46804	4.01078	4.01078
4.4855	4.33148	4.33148
4.50295	4.70463	4.70463
4.5204	5.14455	5.14455
4.53786	5.67128	5.67128
4.55531	6.31375	6.31375
4.57276	7.11537	7.11537
4.59022	8.14435	8.14435
4.60767	9.51436	9.51436
4.62512	11.4301	11.4301
4.64258	14.3007	14.3007
4.66003	19.0811	19.0811
4.67748	28.6363	28.6363
4.69494	57.29	57.29
4.71239	3.49584e+13	3.53522e+13
4.72984	-57.29	-57.29
4.7473	-28.6363	-28.6363
4.76475	-19.0811	-19.0811
4.7822	-14.3007	-14.3007
4.79966	-11.4301	-11.4301
4.81711	-9.51436	-9.51436
4.83456	-8.14435	-8.14435
4.85202	-7.11537	-7.11537
4.86947	-6.31375	-6.31375
4.88692	-5.67128	-5.67128
4.90438	-5.14455	-5.14455
4.92183	-4.70463	-4.70463
4.93928	-4.33148	-4.33148
4.95674	-4.01078	-4.01078
4.97419	-3.73205	-3.73205
4.99164	-3.48741	-3.48741
5.00909	-3.27085	-3.27085
5.02655	-3.07768	-3.07768
5.044	-2.90421	-2.90421
5.06145	-2.74748	-2.74748
5.07891	-2.60509	-2.60509
5.09636	-2.47509	-2.47509
5.11381	-2.35585	-2.35585
5.13127	-2.24604	-2.24604
5.14872	-2.14451	-2.14451
5.16617	-2.0503	-2.0503
5.18363	-1.96261	-1.96261
5.20108	-1.88073	-1.88073
5.21853	-1.80405	-1.80405
5.23599	-1.73205	-1.73205
5.25344	-1.66428	-1.66428
5.27089	-1.60033	-1.60033
5.28835	-1.53986	-1.53986
5.3058	-1.48256	-1.48256
5.32325	-1.42815	-1.42815
5.34071	-1.37638	-1.37638
5.35816	-1.32704	-1.32704
5.37561	-1.27994	-1.27994
5.39307	-1.2349	-1.2349
5.41052	-1.19175	-1.19175
5.42797	-1.15037	-1.15037
5.44543	-1.11061	-1.11061
5.46288	-1.07237	-1.07237
5.48033	-1.03553	-1.03553
5.49779	-1	-1
5.51524	-0.965689	-0.965689
5.53269	-0.932515	-0.932515
5.55015	-0.900404	-0.900404
5.5676	-0.869287	-0.869287
5.58505	-0.8391	-0.8391
5.60251	-0.809784	-0.809784
5.61996	-0.781286	-0.781286
5.63741	-0.753554	-0.753554
5.65487	-0.726543	-0.726543
5.67232	-0.700208	-0.700208
5.68977	-0.674509	-0.674509
5.70723	-0.649408	-0.649408
5.72468	-0.624869	-0.624869
5.74213	-0.600861	-0.600861
5.75959	-0.57735	-0.57735
5.77704	-0.554309	-0.554309
5.79449	-0.531709	-0.531709
5.81195	-0.509525	-0.509525
5.8294	-0.487733	-0.487733
5.84685	-0.466308	-0.466308
5.86431	-0.445229	-0.445229
5.88176	-0.424475	-0.424475
5.89921	-0.404026	-0.404026
5.91667	-0.383864	-0.383864
5.93412	-0.36397	-0.36397
5.95157	-0.344328	-0.344328
5.96903	-0.32492	-0.32492
5.98648	-0.305731	-0.305731
6.00393	-0.286745	-0.286745
6.02139	-0.267949	-0.267949
6.03884	-0.249328	-0.249328
6.05629	-0.230868	-0.230868
6.07375	-0.212557	-0.212557
6.0912	-0.19438	-0.19438
6.10865	-0.176327	-0.176327
6.12611	-0.158384	-0.158384
6.14356	-0.140541	-0.140541
6.16101	-0.122785	-0.122785
6.17847	-0.105104	-0.105104
6.19592	-0.0874887	-0.0874887
6.21337	-0.0699268	-0.0699268
6.23083	-0.0524078	-0.0524078
6.24828	-0.0349208	-0.0349208
6.26573	-0.0174551	-0.0174551
6.28319	-4.64302e-14	-4.19115e-14
