^C:\USERS\JAKUB\DROPBOX\VS PROJECTS\MATODY NUMERYCZNE\ZESTAW 4\ZADANIE 1\ZADANIE 1.CPP
C:\WINDOWS\GLOBALIZATION\SORTING\SORTDEFAULT.NLS
C:\PROGRAM FILES (X86)\MICROSOFT VISUAL STUDIO 14.0\VC\BIN\1033\CLUI.DLL
C:\WINDOWS\SYSTEM32\TZRES.DLL
C:\PROGRAM FILES (X86)\MICROSOFT VISUAL STUDIO 14.0\VC\INCLUDE\IOSTREAM
C:\PROGRAM FILES (X86)\MICROSOFT VISUAL STUDIO 14.0\VC\INCLUDE\ISTREAM
C:\PROGRAM FILES (X86)\MICROSOFT VISUAL STUDIO 14.0\VC\INCLUDE\OSTREAM
C:\PROGRAM FILES (X86)\MICROSOFT VISUAL STUDIO 14.0\VC\INCLUDE\IOS
C:\PROGRAM FILES (X86)\MICROSOFT VISUAL STUDIO 14.0\VC\INCLUDE\XLOCNUM
C:\PROGRAM FILES (X86)\MICROSOFT VISUAL STUDIO 14.0\VC\INCLUDE\CLIMITS
C:\PROGRAM FILES (X86)\MICROSOFT VISUAL STUDIO 14.0\VC\INCLUDE\YVALS.H
C:\PROGRAM FILES (X86)\MICROSOFT VISUAL STUDIO 14.0\VC\INCLUDE\XKEYCHECK.H
C:\PROGRAM FILES (X86)\MICROSOFT VISUAL STUDIO 14.0\VC\INCLUDE\CRTDEFS.H
C:\PROGRAM FILES (X86)\MICROSOFT VISUAL STUDIO 14.0\VC\INCLUDE\VCRUNTIME.H
C:\PROGRAM FILES (X86)\MICROSOFT VISUAL STUDIO 14.0\VC\INCLUDE\SAL.H
C:\PROGRAM FILES (X86)\MICROSOFT VISUAL STUDIO 14.0\VC\INCLUDE\CONCURRENCYSAL.H
C:\PROGRAM FILES (X86)\MICROSOFT VISUAL STUDIO 14.0\VC\INCLUDE\VADEFS.H
C:\PROGRAM FILES (X86)\WINDOWS KITS\10\INCLUDE\10.0.10240.0\UCRT\CORECRT.H
C:\PROGRAM FILES (X86)\MICROSOFT VISUAL STUDIO 14.0\VC\INCLUDE\USE_ANSI.H
C:\PROGRAM FILES (X86)\MICROSOFT VISUAL STUDIO 14.0\VC\INCLUDE\LIMITS.H
C:\PROGRAM FILES (X86)\MICROSOFT VISUAL STUDIO 14.0\VC\INCLUDE\CMATH
C:\PROGRAM FILES (X86)\WINDOWS KITS\10\INCLUDE\10.0.10240.0\UCRT\MATH.H
C:\PROGRAM FILES (X86)\MICROSOFT VISUAL STUDIO 14.0\VC\INCLUDE\XTGMATH.H
C:\PROGRAM FILES (X86)\MICROSOFT VISUAL STUDIO 14.0\VC\INCLUDE\XTR1COMMON
C:\PROGRAM FILES (X86)\MICROSOFT VISUAL STUDIO 14.0\VC\INCLUDE\CSTDLIB
C:\PROGRAM FILES (X86)\WINDOWS KITS\10\INCLUDE\10.0.10240.0\UCRT\STDLIB.H
C:\PROGRAM FILES (X86)\WINDOWS KITS\10\INCLUDE\10.0.10240.0\UCRT\CORECRT_MALLOC.H
C:\PROGRAM FILES (X86)\WINDOWS KITS\10\INCLUDE\10.0.10240.0\UCRT\CORECRT_SEARCH.H
C:\PROGRAM FILES (X86)\WINDOWS KITS\10\INCLUDE\10.0.10240.0\UCRT\STDDEF.H
C:\PROGRAM FILES (X86)\WINDOWS KITS\10\INCLUDE\10.0.10240.0\UCRT\CORECRT_WSTDLIB.H
C:\PROGRAM FILES (X86)\MICROSOFT VISUAL STUDIO 14.0\VC\INCLUDE\CSTDIO
C:\PROGRAM FILES (X86)\WINDOWS KITS\10\INCLUDE\10.0.10240.0\UCRT\STDIO.H
C:\PROGRAM FILES (X86)\WINDOWS KITS\10\INCLUDE\10.0.10240.0\UCRT\CORECRT_WSTDIO.H
C:\PROGRAM FILES (X86)\WINDOWS KITS\10\INCLUDE\10.0.10240.0\UCRT\CORECRT_STDIO_CONFIG.H
C:\PROGRAM FILES (X86)\MICROSOFT VISUAL STUDIO 14.0\VC\INCLUDE\STREAMBUF
C:\PROGRAM FILES (X86)\MICROSOFT VISUAL STUDIO 14.0\VC\INCLUDE\XIOSBASE
C:\PROGRAM FILES (X86)\MICROSOFT VISUAL STUDIO 14.0\VC\INCLUDE\XLOCALE
C:\PROGRAM FILES (X86)\MICROSOFT VISUAL STUDIO 14.0\VC\INCLUDE\CSTRING
C:\PROGRAM FILES (X86)\WINDOWS KITS\10\INCLUDE\10.0.10240.0\UCRT\STRING.H
C:\PROGRAM FILES (X86)\WINDOWS KITS\10\INCLUDE\10.0.10240.0\UCRT\CORECRT_MEMORY.H
C:\PROGRAM FILES (X86)\WINDOWS KITS\10\INCLUDE\10.0.10240.0\UCRT\CORECRT_MEMCPY_S.H
C:\PROGRAM FILES (X86)\WINDOWS KITS\10\INCLUDE\10.0.10240.0\UCRT\ERRNO.H
C:\PROGRAM FILES (X86)\MICROSOFT VISUAL STUDIO 14.0\VC\INCLUDE\VCRUNTIME_STRING.H
C:\PROGRAM FILES (X86)\WINDOWS KITS\10\INCLUDE\10.0.10240.0\UCRT\CORECRT_WSTRING.H
C:\PROGRAM FILES (X86)\MICROSOFT VISUAL STUDIO 14.0\VC\INCLUDE\STDEXCEPT
C:\PROGRAM FILES (X86)\MICROSOFT VISUAL STUDIO 14.0\VC\INCLUDE\EXCEPTION
C:\PROGRAM FILES (X86)\MICROSOFT VISUAL STUDIO 14.0\VC\INCLUDE\TYPE_TRAITS
C:\PROGRAM FILES (X86)\MICROSOFT VISUAL STUDIO 14.0\VC\INCLUDE\XSTDDEF
C:\PROGRAM FILES (X86)\MICROSOFT VISUAL STUDIO 14.0\VC\INCLUDE\CSTDDEF
C:\PROGRAM FILES (X86)\MICROSOFT VISUAL STUDIO 14.0\VC\INCLUDE\INITIALIZER_LIST
C:\PROGRAM FILES (X86)\WINDOWS KITS\10\INCLUDE\10.0.10240.0\UCRT\MALLOC.H
C:\PROGRAM FILES (X86)\MICROSOFT VISUAL STUDIO 14.0\VC\INCLUDE\VCRUNTIME_EXCEPTION.H
C:\PROGRAM FILES (X86)\MICROSOFT VISUAL STUDIO 14.0\VC\INCLUDE\EH.H
C:\PROGRAM FILES (X86)\WINDOWS KITS\10\INCLUDE\10.0.10240.0\UCRT\CORECRT_TERMINATE.H
C:\PROGRAM FILES (X86)\MICROSOFT VISUAL STUDIO 14.0\VC\INCLUDE\XSTRING
C:\PROGRAM FILES (X86)\MICROSOFT VISUAL STUDIO 14.0\VC\INCLUDE\XMEMORY0
C:\PROGRAM FILES (X86)\MICROSOFT VISUAL STUDIO 14.0\VC\INCLUDE\CSTDINT
C:\PROGRAM FILES (X86)\MICROSOFT VISUAL STUDIO 14.0\VC\INCLUDE\STDINT.H
C:\PROGRAM FILES (X86)\MICROSOFT VISUAL STUDIO 14.0\VC\INCLUDE\LIMITS
C:\PROGRAM FILES (X86)\MICROSOFT VISUAL STUDIO 14.0\VC\INCLUDE\YMATH.H
C:\PROGRAM FILES (X86)\MICROSOFT VISUAL STUDIO 14.0\VC\INCLUDE\CFLOAT
C:\PROGRAM FILES (X86)\WINDOWS KITS\10\INCLUDE\10.0.10240.0\UCRT\FLOAT.H
C:\PROGRAM FILES (X86)\MICROSOFT VISUAL STUDIO 14.0\VC\INCLUDE\CWCHAR
C:\PROGRAM FILES (X86)\WINDOWS KITS\10\INCLUDE\10.0.10240.0\UCRT\WCHAR.H
C:\PROGRAM FILES (X86)\WINDOWS KITS\10\INCLUDE\10.0.10240.0\UCRT\CORECRT_WCONIO.H
C:\PROGRAM FILES (X86)\WINDOWS KITS\10\INCLUDE\10.0.10240.0\UCRT\CORECRT_WCTYPE.H
C:\PROGRAM FILES (X86)\WINDOWS KITS\10\INCLUDE\10.0.10240.0\UCRT\CORECRT_WDIRECT.H
C:\PROGRAM FILES (X86)\WINDOWS KITS\10\INCLUDE\10.0.10240.0\UCRT\CORECRT_WIO.H
C:\PROGRAM FILES (X86)\WINDOWS KITS\10\INCLUDE\10.0.10240.0\UCRT\CORECRT_SHARE.H
C:\PROGRAM FILES (X86)\WINDOWS KITS\10\INCLUDE\10.0.10240.0\UCRT\CORECRT_WPROCESS.H
C:\PROGRAM FILES (X86)\WINDOWS KITS\10\INCLUDE\10.0.10240.0\UCRT\CORECRT_WTIME.H
C:\PROGRAM FILES (X86)\WINDOWS KITS\10\INCLUDE\10.0.10240.0\UCRT\SYS\STAT.H
C:\PROGRAM FILES (X86)\WINDOWS KITS\10\INCLUDE\10.0.10240.0\UCRT\SYS\TYPES.H
C:\PROGRAM FILES (X86)\MICROSOFT VISUAL STUDIO 14.0\VC\INCLUDE\NEW
C:\PROGRAM FILES (X86)\MICROSOFT VISUAL STUDIO 14.0\VC\INCLUDE\VCRUNTIME_NEW.H
C:\PROGRAM FILES (X86)\MICROSOFT VISUAL STUDIO 14.0\VC\INCLUDE\XUTILITY
C:\PROGRAM FILES (X86)\MICROSOFT VISUAL STUDIO 14.0\VC\INCLUDE\UTILITY
C:\PROGRAM FILES (X86)\MICROSOFT VISUAL STUDIO 14.0\VC\INCLUDE\IOSFWD
C:\PROGRAM FILES (X86)\WINDOWS KITS\10\INCLUDE\10.0.10240.0\UCRT\CRTDBG.H
C:\PROGRAM FILES (X86)\MICROSOFT VISUAL STUDIO 14.0\VC\INCLUDE\VCRUNTIME_NEW_DEBUG.H
C:\PROGRAM FILES (X86)\MICROSOFT VISUAL STUDIO 14.0\VC\INCLUDE\XATOMIC0.H
C:\PROGRAM FILES (X86)\MICROSOFT VISUAL STUDIO 14.0\VC\INCLUDE\INTRIN.H
C:\PROGRAM FILES (X86)\MICROSOFT VISUAL STUDIO 14.0\VC\INCLUDE\SETJMP.H
C:\PROGRAM FILES (X86)\MICROSOFT VISUAL STUDIO 14.0\VC\INCLUDE\IMMINTRIN.H
C:\PROGRAM FILES (X86)\MICROSOFT VISUAL STUDIO 14.0\VC\INCLUDE\WMMINTRIN.H
C:\PROGRAM FILES (X86)\MICROSOFT VISUAL STUDIO 14.0\VC\INCLUDE\NMMINTRIN.H
C:\PROGRAM FILES (X86)\MICROSOFT VISUAL STUDIO 14.0\VC\INCLUDE\SMMINTRIN.H
C:\PROGRAM FILES (X86)\MICROSOFT VISUAL STUDIO 14.0\VC\INCLUDE\TMMINTRIN.H
C:\PROGRAM FILES (X86)\MICROSOFT VISUAL STUDIO 14.0\VC\INCLUDE\PMMINTRIN.H
C:\PROGRAM FILES (X86)\MICROSOFT VISUAL STUDIO 14.0\VC\INCLUDE\EMMINTRIN.H
C:\PROGRAM FILES (X86)\MICROSOFT VISUAL STUDIO 14.0\VC\INCLUDE\XMMINTRIN.H
C:\PROGRAM FILES (X86)\MICROSOFT VISUAL STUDIO 14.0\VC\INCLUDE\MMINTRIN.H
C:\PROGRAM FILES (X86)\MICROSOFT VISUAL STUDIO 14.0\VC\INCLUDE\AMMINTRIN.H
C:\PROGRAM FILES (X86)\MICROSOFT VISUAL STUDIO 14.0\VC\INCLUDE\MM3DNOW.H
C:\PROGRAM FILES (X86)\MICROSOFT VISUAL STUDIO 14.0\VC\INCLUDE\TYPEINFO
C:\PROGRAM FILES (X86)\MICROSOFT VISUAL STUDIO 14.0\VC\INCLUDE\VCRUNTIME_TYPEINFO.H
C:\PROGRAM FILES (X86)\MICROSOFT VISUAL STUDIO 14.0\VC\INCLUDE\XLOCINFO
C:\PROGRAM FILES (X86)\MICROSOFT VISUAL STUDIO 14.0\VC\INCLUDE\XLOCINFO.H
C:\PROGRAM FILES (X86)\WINDOWS KITS\10\INCLUDE\10.0.10240.0\UCRT\CTYPE.H
C:\PROGRAM FILES (X86)\WINDOWS KITS\10\INCLUDE\10.0.10240.0\UCRT\LOCALE.H
C:\PROGRAM FILES (X86)\MICROSOFT VISUAL STUDIO 14.0\VC\INCLUDE\XFACET
C:\PROGRAM FILES (X86)\MICROSOFT VISUAL STUDIO 14.0\VC\INCLUDE\SYSTEM_ERROR
C:\PROGRAM FILES (X86)\MICROSOFT VISUAL STUDIO 14.0\VC\INCLUDE\CERRNO
C:\PROGRAM FILES (X86)\WINDOWS KITS\10\INCLUDE\10.0.10240.0\UCRT\SHARE.H
C:\USERS\JAKUB\DROPBOX\VS PROJECTS\MATODY NUMERYCZNE\ZESTAW 4\ZADANIE 1\EIGEN\EIGEN
C:\USERS\JAKUB\DROPBOX\VS PROJECTS\MATODY NUMERYCZNE\ZESTAW 4\ZADANIE 1\EIGEN\DENSE
C:\USERS\JAKUB\DROPBOX\VS PROJECTS\MATODY NUMERYCZNE\ZESTAW 4\ZADANIE 1\EIGEN\CORE
C:\USERS\JAKUB\DROPBOX\VS PROJECTS\MATODY NUMERYCZNE\ZESTAW 4\ZADANIE 1\EIGEN\SRC\CORE\UTIL\DISABLESTUPIDWARNINGS.H
C:\USERS\JAKUB\DROPBOX\VS PROJECTS\MATODY NUMERYCZNE\ZESTAW 4\ZADANIE 1\EIGEN\SRC\CORE\UTIL\MACROS.H
C:\PROGRAM FILES (X86)\MICROSOFT VISUAL STUDIO 14.0\VC\INCLUDE\COMPLEX
C:\PROGRAM FILES (X86)\MICROSOFT VISUAL STUDIO 14.0\VC\INCLUDE\CCOMPLEX
C:\PROGRAM FILES (X86)\MICROSOFT VISUAL STUDIO 14.0\VC\INCLUDE\SSTREAM
C:\PROGRAM FILES (X86)\MICROSOFT VISUAL STUDIO 14.0\VC\INCLUDE\STRING
C:\PROGRAM FILES (X86)\MICROSOFT VISUAL STUDIO 14.0\VC\INCLUDE\XCOMPLEX
C:\USERS\JAKUB\DROPBOX\VS PROJECTS\MATODY NUMERYCZNE\ZESTAW 4\ZADANIE 1\EIGEN\SRC\CORE\UTIL\MKL_SUPPORT.H
C:\PROGRAM FILES (X86)\MICROSOFT VISUAL STUDIO 14.0\VC\INCLUDE\CASSERT
C:\PROGRAM FILES (X86)\WINDOWS KITS\10\INCLUDE\10.0.10240.0\UCRT\ASSERT.H
C:\PROGRAM FILES (X86)\MICROSOFT VISUAL STUDIO 14.0\VC\INCLUDE\FUNCTIONAL
C:\PROGRAM FILES (X86)\MICROSOFT VISUAL STUDIO 14.0\VC\INCLUDE\XFUNCTIONAL
C:\PROGRAM FILES (X86)\MICROSOFT VISUAL STUDIO 14.0\VC\INCLUDE\TUPLE
C:\PROGRAM FILES (X86)\MICROSOFT VISUAL STUDIO 14.0\VC\INCLUDE\ALGORITHM
C:\PROGRAM FILES (X86)\MICROSOFT VISUAL STUDIO 14.0\VC\INCLUDE\XMEMORY
C:\USERS\JAKUB\DROPBOX\VS PROJECTS\MATODY NUMERYCZNE\ZESTAW 4\ZADANIE 1\EIGEN\SRC\CORE\UTIL\CONSTANTS.H
C:\USERS\JAKUB\DROPBOX\VS PROJECTS\MATODY NUMERYCZNE\ZESTAW 4\ZADANIE 1\EIGEN\SRC\CORE\UTIL\META.H
C:\USERS\JAKUB\DROPBOX\VS PROJECTS\MATODY NUMERYCZNE\ZESTAW 4\ZADANIE 1\EIGEN\SRC\CORE\UTIL\FORWARDDECLARATIONS.H
C:\USERS\JAKUB\DROPBOX\VS PROJECTS\MATODY NUMERYCZNE\ZESTAW 4\ZADANIE 1\EIGEN\SRC\CORE\UTIL\STATICASSERT.H
C:\USERS\JAKUB\DROPBOX\VS PROJECTS\MATODY NUMERYCZNE\ZESTAW 4\ZADANIE 1\EIGEN\SRC\CORE\UTIL\XPRHELPER.H
C:\USERS\JAKUB\DROPBOX\VS PROJECTS\MATODY NUMERYCZNE\ZESTAW 4\ZADANIE 1\EIGEN\SRC\CORE\UTIL\MEMORY.H
C:\USERS\JAKUB\DROPBOX\VS PROJECTS\MATODY NUMERYCZNE\ZESTAW 4\ZADANIE 1\EIGEN\SRC\CORE\NUMTRAITS.H
C:\USERS\JAKUB\DROPBOX\VS PROJECTS\MATODY NUMERYCZNE\ZESTAW 4\ZADANIE 1\EIGEN\SRC\CORE\MATHFUNCTIONS.H
C:\USERS\JAKUB\DROPBOX\VS PROJECTS\MATODY NUMERYCZNE\ZESTAW 4\ZADANIE 1\EIGEN\SRC\CORE\GENERICPACKETMATH.H
C:\USERS\JAKUB\DROPBOX\VS PROJECTS\MATODY NUMERYCZNE\ZESTAW 4\ZADANIE 1\EIGEN\SRC\CORE\MATHFUNCTIONSIMPL.H
C:\USERS\JAKUB\DROPBOX\VS PROJECTS\MATODY NUMERYCZNE\ZESTAW 4\ZADANIE 1\EIGEN\SRC\CORE\ARCH\DEFAULT\CONJHELPER.H
C:\USERS\JAKUB\DROPBOX\VS PROJECTS\MATODY NUMERYCZNE\ZESTAW 4\ZADANIE 1\EIGEN\SRC\CORE\ARCH\SSE\PACKETMATH.H
C:\USERS\JAKUB\DROPBOX\VS PROJECTS\MATODY NUMERYCZNE\ZESTAW 4\ZADANIE 1\EIGEN\SRC\CORE\ARCH\SSE\MATHFUNCTIONS.H
C:\USERS\JAKUB\DROPBOX\VS PROJECTS\MATODY NUMERYCZNE\ZESTAW 4\ZADANIE 1\EIGEN\SRC\CORE\ARCH\SSE\COMPLEX.H
C:\USERS\JAKUB\DROPBOX\VS PROJECTS\MATODY NUMERYCZNE\ZESTAW 4\ZADANIE 1\EIGEN\SRC\CORE\ARCH\SSE\TYPECASTING.H
C:\USERS\JAKUB\DROPBOX\VS PROJECTS\MATODY NUMERYCZNE\ZESTAW 4\ZADANIE 1\EIGEN\SRC\CORE\ARCH\CUDA\HALF.H
C:\USERS\JAKUB\DROPBOX\VS PROJECTS\MATODY NUMERYCZNE\ZESTAW 4\ZADANIE 1\EIGEN\SRC\CORE\ARCH\CUDA\PACKETMATHHALF.H
C:\USERS\JAKUB\DROPBOX\VS PROJECTS\MATODY NUMERYCZNE\ZESTAW 4\ZADANIE 1\EIGEN\SRC\CORE\ARCH\CUDA\TYPECASTING.H
C:\USERS\JAKUB\DROPBOX\VS PROJECTS\MATODY NUMERYCZNE\ZESTAW 4\ZADANIE 1\EIGEN\SRC\CORE\ARCH\DEFAULT\SETTINGS.H
C:\USERS\JAKUB\DROPBOX\VS PROJECTS\MATODY NUMERYCZNE\ZESTAW 4\ZADANIE 1\EIGEN\SRC\CORE\FUNCTORS\TERNARYFUNCTORS.H
C:\USERS\JAKUB\DROPBOX\VS PROJECTS\MATODY NUMERYCZNE\ZESTAW 4\ZADANIE 1\EIGEN\SRC\CORE\FUNCTORS\BINARYFUNCTORS.H
C:\USERS\JAKUB\DROPBOX\VS PROJECTS\MATODY NUMERYCZNE\ZESTAW 4\ZADANIE 1\EIGEN\SRC\CORE\FUNCTORS\UNARYFUNCTORS.H
C:\USERS\JAKUB\DROPBOX\VS PROJECTS\MATODY NUMERYCZNE\ZESTAW 4\ZADANIE 1\EIGEN\SRC\CORE\FUNCTORS\NULLARYFUNCTORS.H
C:\USERS\JAKUB\DROPBOX\VS PROJECTS\MATODY NUMERYCZNE\ZESTAW 4\ZADANIE 1\EIGEN\SRC\CORE\FUNCTORS\STLFUNCTORS.H
C:\USERS\JAKUB\DROPBOX\VS PROJECTS\MATODY NUMERYCZNE\ZESTAW 4\ZADANIE 1\EIGEN\SRC\CORE\FUNCTORS\ASSIGNMENTFUNCTORS.H
C:\USERS\JAKUB\DROPBOX\VS PROJECTS\MATODY NUMERYCZNE\ZESTAW 4\ZADANIE 1\EIGEN\SRC\CORE\ARCH\CUDA\COMPLEX.H
C:\USERS\JAKUB\DROPBOX\VS PROJECTS\MATODY NUMERYCZNE\ZESTAW 4\ZADANIE 1\EIGEN\SRC\CORE\IO.H
C:\USERS\JAKUB\DROPBOX\VS PROJECTS\MATODY NUMERYCZNE\ZESTAW 4\ZADANIE 1\EIGEN\SRC\CORE\DENSECOEFFSBASE.H
C:\USERS\JAKUB\DROPBOX\VS PROJECTS\MATODY NUMERYCZNE\ZESTAW 4\ZADANIE 1\EIGEN\SRC\CORE\DENSEBASE.H
C:\USERS\JAKUB\DROPBOX\VS PROJECTS\MATODY NUMERYCZNE\ZESTAW 4\ZADANIE 1\EIGEN\SRC\PLUGINS\BLOCKMETHODS.H
C:\USERS\JAKUB\DROPBOX\VS PROJECTS\MATODY NUMERYCZNE\ZESTAW 4\ZADANIE 1\EIGEN\SRC\CORE\MATRIXBASE.H
C:\USERS\JAKUB\DROPBOX\VS PROJECTS\MATODY NUMERYCZNE\ZESTAW 4\ZADANIE 1\EIGEN\SRC\PLUGINS\COMMONCWISEUNARYOPS.H
C:\USERS\JAKUB\DROPBOX\VS PROJECTS\MATODY NUMERYCZNE\ZESTAW 4\ZADANIE 1\EIGEN\SRC\PLUGINS\COMMONCWISEBINARYOPS.H
C:\USERS\JAKUB\DROPBOX\VS PROJECTS\MATODY NUMERYCZNE\ZESTAW 4\ZADANIE 1\EIGEN\SRC\PLUGINS\MATRIXCWISEUNARYOPS.H
C:\USERS\JAKUB\DROPBOX\VS PROJECTS\MATODY NUMERYCZNE\ZESTAW 4\ZADANIE 1\EIGEN\SRC\PLUGINS\MATRIXCWISEBINARYOPS.H
C:\USERS\JAKUB\DROPBOX\VS PROJECTS\MATODY NUMERYCZNE\ZESTAW 4\ZADANIE 1\EIGEN\SRC\CORE\EIGENBASE.H
C:\USERS\JAKUB\DROPBOX\VS PROJECTS\MATODY NUMERYCZNE\ZESTAW 4\ZADANIE 1\EIGEN\SRC\CORE\PRODUCT.H
C:\USERS\JAKUB\DROPBOX\VS PROJECTS\MATODY NUMERYCZNE\ZESTAW 4\ZADANIE 1\EIGEN\SRC\CORE\COREEVALUATORS.H
C:\USERS\JAKUB\DROPBOX\VS PROJECTS\MATODY NUMERYCZNE\ZESTAW 4\ZADANIE 1\EIGEN\SRC\CORE\ASSIGNEVALUATOR.H
C:\USERS\JAKUB\DROPBOX\VS PROJECTS\MATODY NUMERYCZNE\ZESTAW 4\ZADANIE 1\EIGEN\SRC\CORE\ASSIGN.H
C:\USERS\JAKUB\DROPBOX\VS PROJECTS\MATODY NUMERYCZNE\ZESTAW 4\ZADANIE 1\EIGEN\SRC\CORE\ARRAYBASE.H
C:\USERS\JAKUB\DROPBOX\VS PROJECTS\MATODY NUMERYCZNE\ZESTAW 4\ZADANIE 1\EIGEN\SRC\PLUGINS\ARRAYCWISEUNARYOPS.H
C:\USERS\JAKUB\DROPBOX\VS PROJECTS\MATODY NUMERYCZNE\ZESTAW 4\ZADANIE 1\EIGEN\SRC\PLUGINS\ARRAYCWISEBINARYOPS.H
C:\USERS\JAKUB\DROPBOX\VS PROJECTS\MATODY NUMERYCZNE\ZESTAW 4\ZADANIE 1\EIGEN\SRC\CORE\UTIL\BLASUTIL.H
C:\USERS\JAKUB\DROPBOX\VS PROJECTS\MATODY NUMERYCZNE\ZESTAW 4\ZADANIE 1\EIGEN\SRC\CORE\DENSESTORAGE.H
C:\USERS\JAKUB\DROPBOX\VS PROJECTS\MATODY NUMERYCZNE\ZESTAW 4\ZADANIE 1\EIGEN\SRC\CORE\NESTBYVALUE.H
C:\USERS\JAKUB\DROPBOX\VS PROJECTS\MATODY NUMERYCZNE\ZESTAW 4\ZADANIE 1\EIGEN\SRC\CORE\RETURNBYVALUE.H
C:\USERS\JAKUB\DROPBOX\VS PROJECTS\MATODY NUMERYCZNE\ZESTAW 4\ZADANIE 1\EIGEN\SRC\CORE\NOALIAS.H
C:\USERS\JAKUB\DROPBOX\VS PROJECTS\MATODY NUMERYCZNE\ZESTAW 4\ZADANIE 1\EIGEN\SRC\CORE\PLAINOBJECTBASE.H
C:\USERS\JAKUB\DROPBOX\VS PROJECTS\MATODY NUMERYCZNE\ZESTAW 4\ZADANIE 1\EIGEN\SRC\CORE\MATRIX.H
C:\USERS\JAKUB\DROPBOX\VS PROJECTS\MATODY NUMERYCZNE\ZESTAW 4\ZADANIE 1\EIGEN\SRC\CORE\ARRAY.H
C:\USERS\JAKUB\DROPBOX\VS PROJECTS\MATODY NUMERYCZNE\ZESTAW 4\ZADANIE 1\EIGEN\SRC\CORE\CWISETERNARYOP.H
C:\USERS\JAKUB\DROPBOX\VS PROJECTS\MATODY NUMERYCZNE\ZESTAW 4\ZADANIE 1\EIGEN\SRC\CORE\CWISEBINARYOP.H
C:\USERS\JAKUB\DROPBOX\VS PROJECTS\MATODY NUMERYCZNE\ZESTAW 4\ZADANIE 1\EIGEN\SRC\CORE\CWISEUNARYOP.H
C:\USERS\JAKUB\DROPBOX\VS PROJECTS\MATODY NUMERYCZNE\ZESTAW 4\ZADANIE 1\EIGEN\SRC\CORE\CWISENULLARYOP.H
C:\USERS\JAKUB\DROPBOX\VS PROJECTS\MATODY NUMERYCZNE\ZESTAW 4\ZADANIE 1\EIGEN\SRC\CORE\CWISEUNARYVIEW.H
C:\USERS\JAKUB\DROPBOX\VS PROJECTS\MATODY NUMERYCZNE\ZESTAW 4\ZADANIE 1\EIGEN\SRC\CORE\SELFCWISEBINARYOP.H
C:\USERS\JAKUB\DROPBOX\VS PROJECTS\MATODY NUMERYCZNE\ZESTAW 4\ZADANIE 1\EIGEN\SRC\CORE\DOT.H
C:\USERS\JAKUB\DROPBOX\VS PROJECTS\MATODY NUMERYCZNE\ZESTAW 4\ZADANIE 1\EIGEN\SRC\CORE\STABLENORM.H
C:\USERS\JAKUB\DROPBOX\VS PROJECTS\MATODY NUMERYCZNE\ZESTAW 4\ZADANIE 1\EIGEN\SRC\CORE\STRIDE.H
C:\USERS\JAKUB\DROPBOX\VS PROJECTS\MATODY NUMERYCZNE\ZESTAW 4\ZADANIE 1\EIGEN\SRC\CORE\MAPBASE.H
C:\USERS\JAKUB\DROPBOX\VS PROJECTS\MATODY NUMERYCZNE\ZESTAW 4\ZADANIE 1\EIGEN\SRC\CORE\MAP.H
C:\USERS\JAKUB\DROPBOX\VS PROJECTS\MATODY NUMERYCZNE\ZESTAW 4\ZADANIE 1\EIGEN\SRC\CORE\REF.H
C:\USERS\JAKUB\DROPBOX\VS PROJECTS\MATODY NUMERYCZNE\ZESTAW 4\ZADANIE 1\EIGEN\SRC\CORE\BLOCK.H
C:\USERS\JAKUB\DROPBOX\VS PROJECTS\MATODY NUMERYCZNE\ZESTAW 4\ZADANIE 1\EIGEN\SRC\CORE\VECTORBLOCK.H
C:\USERS\JAKUB\DROPBOX\VS PROJECTS\MATODY NUMERYCZNE\ZESTAW 4\ZADANIE 1\EIGEN\SRC\CORE\TRANSPOSE.H
C:\USERS\JAKUB\DROPBOX\VS PROJECTS\MATODY NUMERYCZNE\ZESTAW 4\ZADANIE 1\EIGEN\SRC\CORE\DIAGONALMATRIX.H
C:\USERS\JAKUB\DROPBOX\VS PROJECTS\MATODY NUMERYCZNE\ZESTAW 4\ZADANIE 1\EIGEN\SRC\CORE\DIAGONAL.H
C:\USERS\JAKUB\DROPBOX\VS PROJECTS\MATODY NUMERYCZNE\ZESTAW 4\ZADANIE 1\EIGEN\SRC\CORE\DIAGONALPRODUCT.H
C:\USERS\JAKUB\DROPBOX\VS PROJECTS\MATODY NUMERYCZNE\ZESTAW 4\ZADANIE 1\EIGEN\SRC\CORE\REDUX.H
C:\USERS\JAKUB\DROPBOX\VS PROJECTS\MATODY NUMERYCZNE\ZESTAW 4\ZADANIE 1\EIGEN\SRC\CORE\VISITOR.H
C:\USERS\JAKUB\DROPBOX\VS PROJECTS\MATODY NUMERYCZNE\ZESTAW 4\ZADANIE 1\EIGEN\SRC\CORE\FUZZY.H
C:\USERS\JAKUB\DROPBOX\VS PROJECTS\MATODY NUMERYCZNE\ZESTAW 4\ZADANIE 1\EIGEN\SRC\CORE\SWAP.H
C:\USERS\JAKUB\DROPBOX\VS PROJECTS\MATODY NUMERYCZNE\ZESTAW 4\ZADANIE 1\EIGEN\SRC\CORE\COMMAINITIALIZER.H
C:\USERS\JAKUB\DROPBOX\VS PROJECTS\MATODY NUMERYCZNE\ZESTAW 4\ZADANIE 1\EIGEN\SRC\CORE\GENERALPRODUCT.H
C:\USERS\JAKUB\DROPBOX\VS PROJECTS\MATODY NUMERYCZNE\ZESTAW 4\ZADANIE 1\EIGEN\SRC\CORE\SOLVE.H
C:\USERS\JAKUB\DROPBOX\VS PROJECTS\MATODY NUMERYCZNE\ZESTAW 4\ZADANIE 1\EIGEN\SRC\CORE\INVERSE.H
C:\USERS\JAKUB\DROPBOX\VS PROJECTS\MATODY NUMERYCZNE\ZESTAW 4\ZADANIE 1\EIGEN\SRC\CORE\SOLVERBASE.H
C:\USERS\JAKUB\DROPBOX\VS PROJECTS\MATODY NUMERYCZNE\ZESTAW 4\ZADANIE 1\EIGEN\SRC\CORE\PERMUTATIONMATRIX.H
C:\USERS\JAKUB\DROPBOX\VS PROJECTS\MATODY NUMERYCZNE\ZESTAW 4\ZADANIE 1\EIGEN\SRC\CORE\TRANSPOSITIONS.H
C:\USERS\JAKUB\DROPBOX\VS PROJECTS\MATODY NUMERYCZNE\ZESTAW 4\ZADANIE 1\EIGEN\SRC\CORE\TRIANGULARMATRIX.H
C:\USERS\JAKUB\DROPBOX\VS PROJECTS\MATODY NUMERYCZNE\ZESTAW 4\ZADANIE 1\EIGEN\SRC\CORE\SELFADJOINTVIEW.H
C:\USERS\JAKUB\DROPBOX\VS PROJECTS\MATODY NUMERYCZNE\ZESTAW 4\ZADANIE 1\EIGEN\SRC\CORE\PRODUCTS\GENERALBLOCKPANELKERNEL.H
C:\USERS\JAKUB\DROPBOX\VS PROJECTS\MATODY NUMERYCZNE\ZESTAW 4\ZADANIE 1\EIGEN\SRC\CORE\PRODUCTS\PARALLELIZER.H
C:\USERS\JAKUB\DROPBOX\VS PROJECTS\MATODY NUMERYCZNE\ZESTAW 4\ZADANIE 1\EIGEN\SRC\CORE\PRODUCTEVALUATORS.H
C:\USERS\JAKUB\DROPBOX\VS PROJECTS\MATODY NUMERYCZNE\ZESTAW 4\ZADANIE 1\EIGEN\SRC\CORE\PRODUCTS\GENERALMATRIXVECTOR.H
C:\USERS\JAKUB\DROPBOX\VS PROJECTS\MATODY NUMERYCZNE\ZESTAW 4\ZADANIE 1\EIGEN\SRC\CORE\PRODUCTS\GENERALMATRIXMATRIX.H
C:\USERS\JAKUB\DROPBOX\VS PROJECTS\MATODY NUMERYCZNE\ZESTAW 4\ZADANIE 1\EIGEN\SRC\CORE\SOLVETRIANGULAR.H
C:\USERS\JAKUB\DROPBOX\VS PROJECTS\MATODY NUMERYCZNE\ZESTAW 4\ZADANIE 1\EIGEN\SRC\CORE\PRODUCTS\GENERALMATRIXMATRIXTRIANGULAR.H
C:\USERS\JAKUB\DROPBOX\VS PROJECTS\MATODY NUMERYCZNE\ZESTAW 4\ZADANIE 1\EIGEN\SRC\CORE\PRODUCTS\SELFADJOINTMATRIXVECTOR.H
C:\USERS\JAKUB\DROPBOX\VS PROJECTS\MATODY NUMERYCZNE\ZESTAW 4\ZADANIE 1\EIGEN\SRC\CORE\PRODUCTS\SELFADJOINTMATRIXMATRIX.H
C:\USERS\JAKUB\DROPBOX\VS PROJECTS\MATODY NUMERYCZNE\ZESTAW 4\ZADANIE 1\EIGEN\SRC\CORE\PRODUCTS\SELFADJOINTPRODUCT.H
C:\USERS\JAKUB\DROPBOX\VS PROJECTS\MATODY NUMERYCZNE\ZESTAW 4\ZADANIE 1\EIGEN\SRC\CORE\PRODUCTS\SELFADJOINTRANK2UPDATE.H
C:\USERS\JAKUB\DROPBOX\VS PROJECTS\MATODY NUMERYCZNE\ZESTAW 4\ZADANIE 1\EIGEN\SRC\CORE\PRODUCTS\TRIANGULARMATRIXVECTOR.H
C:\USERS\JAKUB\DROPBOX\VS PROJECTS\MATODY NUMERYCZNE\ZESTAW 4\ZADANIE 1\EIGEN\SRC\CORE\PRODUCTS\TRIANGULARMATRIXMATRIX.H
C:\USERS\JAKUB\DROPBOX\VS PROJECTS\MATODY NUMERYCZNE\ZESTAW 4\ZADANIE 1\EIGEN\SRC\CORE\PRODUCTS\TRIANGULARSOLVERMATRIX.H
C:\USERS\JAKUB\DROPBOX\VS PROJECTS\MATODY NUMERYCZNE\ZESTAW 4\ZADANIE 1\EIGEN\SRC\CORE\PRODUCTS\TRIANGULARSOLVERVECTOR.H
C:\USERS\JAKUB\DROPBOX\VS PROJECTS\MATODY NUMERYCZNE\ZESTAW 4\ZADANIE 1\EIGEN\SRC\CORE\BANDMATRIX.H
C:\USERS\JAKUB\DROPBOX\VS PROJECTS\MATODY NUMERYCZNE\ZESTAW 4\ZADANIE 1\EIGEN\SRC\CORE\COREITERATORS.H
C:\USERS\JAKUB\DROPBOX\VS PROJECTS\MATODY NUMERYCZNE\ZESTAW 4\ZADANIE 1\EIGEN\SRC\CORE\CONDITIONESTIMATOR.H
C:\USERS\JAKUB\DROPBOX\VS PROJECTS\MATODY NUMERYCZNE\ZESTAW 4\ZADANIE 1\EIGEN\SRC\CORE\BOOLEANREDUX.H
C:\USERS\JAKUB\DROPBOX\VS PROJECTS\MATODY NUMERYCZNE\ZESTAW 4\ZADANIE 1\EIGEN\SRC\CORE\SELECT.H
C:\USERS\JAKUB\DROPBOX\VS PROJECTS\MATODY NUMERYCZNE\ZESTAW 4\ZADANIE 1\EIGEN\SRC\CORE\VECTORWISEOP.H
C:\USERS\JAKUB\DROPBOX\VS PROJECTS\MATODY NUMERYCZNE\ZESTAW 4\ZADANIE 1\EIGEN\SRC\CORE\RANDOM.H
C:\USERS\JAKUB\DROPBOX\VS PROJECTS\MATODY NUMERYCZNE\ZESTAW 4\ZADANIE 1\EIGEN\SRC\CORE\REPLICATE.H
C:\USERS\JAKUB\DROPBOX\VS PROJECTS\MATODY NUMERYCZNE\ZESTAW 4\ZADANIE 1\EIGEN\SRC\CORE\REVERSE.H
C:\USERS\JAKUB\DROPBOX\VS PROJECTS\MATODY NUMERYCZNE\ZESTAW 4\ZADANIE 1\EIGEN\SRC\CORE\ARRAYWRAPPER.H
C:\USERS\JAKUB\DROPBOX\VS PROJECTS\MATODY NUMERYCZNE\ZESTAW 4\ZADANIE 1\EIGEN\SRC\CORE\GLOBALFUNCTIONS.H
C:\USERS\JAKUB\DROPBOX\VS PROJECTS\MATODY NUMERYCZNE\ZESTAW 4\ZADANIE 1\EIGEN\SRC\CORE\UTIL\REENABLESTUPIDWARNINGS.H
C:\USERS\JAKUB\DROPBOX\VS PROJECTS\MATODY NUMERYCZNE\ZESTAW 4\ZADANIE 1\EIGEN\LU
C:\USERS\JAKUB\DROPBOX\VS PROJECTS\MATODY NUMERYCZNE\ZESTAW 4\ZADANIE 1\EIGEN\SRC\MISC\KERNEL.H
C:\USERS\JAKUB\DROPBOX\VS PROJECTS\MATODY NUMERYCZNE\ZESTAW 4\ZADANIE 1\EIGEN\SRC\MISC\IMAGE.H
C:\USERS\JAKUB\DROPBOX\VS PROJECTS\MATODY NUMERYCZNE\ZESTAW 4\ZADANIE 1\EIGEN\SRC\LU\FULLPIVLU.H
C:\USERS\JAKUB\DROPBOX\VS PROJECTS\MATODY NUMERYCZNE\ZESTAW 4\ZADANIE 1\EIGEN\SRC\LU\PARTIALPIVLU.H
C:\USERS\JAKUB\DROPBOX\VS PROJECTS\MATODY NUMERYCZNE\ZESTAW 4\ZADANIE 1\EIGEN\SRC\LU\DETERMINANT.H
C:\USERS\JAKUB\DROPBOX\VS PROJECTS\MATODY NUMERYCZNE\ZESTAW 4\ZADANIE 1\EIGEN\SRC\LU\INVERSEIMPL.H
C:\USERS\JAKUB\DROPBOX\VS PROJECTS\MATODY NUMERYCZNE\ZESTAW 4\ZADANIE 1\EIGEN\SRC\LU\ARCH\INVERSE_SSE.H
C:\USERS\JAKUB\DROPBOX\VS PROJECTS\MATODY NUMERYCZNE\ZESTAW 4\ZADANIE 1\EIGEN\CHOLESKY
C:\USERS\JAKUB\DROPBOX\VS PROJECTS\MATODY NUMERYCZNE\ZESTAW 4\ZADANIE 1\EIGEN\JACOBI
C:\USERS\JAKUB\DROPBOX\VS PROJECTS\MATODY NUMERYCZNE\ZESTAW 4\ZADANIE 1\EIGEN\SRC\JACOBI\JACOBI.H
C:\USERS\JAKUB\DROPBOX\VS PROJECTS\MATODY NUMERYCZNE\ZESTAW 4\ZADANIE 1\EIGEN\SRC\CHOLESKY\LLT.H
C:\USERS\JAKUB\DROPBOX\VS PROJECTS\MATODY NUMERYCZNE\ZESTAW 4\ZADANIE 1\EIGEN\SRC\CHOLESKY\LDLT.H
C:\USERS\JAKUB\DROPBOX\VS PROJECTS\MATODY NUMERYCZNE\ZESTAW 4\ZADANIE 1\EIGEN\QR
C:\USERS\JAKUB\DROPBOX\VS PROJECTS\MATODY NUMERYCZNE\ZESTAW 4\ZADANIE 1\EIGEN\HOUSEHOLDER
C:\USERS\JAKUB\DROPBOX\VS PROJECTS\MATODY NUMERYCZNE\ZESTAW 4\ZADANIE 1\EIGEN\SRC\HOUSEHOLDER\HOUSEHOLDER.H
C:\USERS\JAKUB\DROPBOX\VS PROJECTS\MATODY NUMERYCZNE\ZESTAW 4\ZADANIE 1\EIGEN\SRC\HOUSEHOLDER\HOUSEHOLDERSEQUENCE.H
C:\USERS\JAKUB\DROPBOX\VS PROJECTS\MATODY NUMERYCZNE\ZESTAW 4\ZADANIE 1\EIGEN\SRC\HOUSEHOLDER\BLOCKHOUSEHOLDER.H
C:\USERS\JAKUB\DROPBOX\VS PROJECTS\MATODY NUMERYCZNE\ZESTAW 4\ZADANIE 1\EIGEN\SRC\QR\HOUSEHOLDERQR.H
C:\USERS\JAKUB\DROPBOX\VS PROJECTS\MATODY NUMERYCZNE\ZESTAW 4\ZADANIE 1\EIGEN\SRC\QR\FULLPIVHOUSEHOLDERQR.H
C:\USERS\JAKUB\DROPBOX\VS PROJECTS\MATODY NUMERYCZNE\ZESTAW 4\ZADANIE 1\EIGEN\SRC\QR\COLPIVHOUSEHOLDERQR.H
C:\USERS\JAKUB\DROPBOX\VS PROJECTS\MATODY NUMERYCZNE\ZESTAW 4\ZADANIE 1\EIGEN\SRC\QR\COMPLETEORTHOGONALDECOMPOSITION.H
C:\USERS\JAKUB\DROPBOX\VS PROJECTS\MATODY NUMERYCZNE\ZESTAW 4\ZADANIE 1\EIGEN\SVD
C:\USERS\JAKUB\DROPBOX\VS PROJECTS\MATODY NUMERYCZNE\ZESTAW 4\ZADANIE 1\EIGEN\SRC\MISC\REALSVD2X2.H
C:\USERS\JAKUB\DROPBOX\VS PROJECTS\MATODY NUMERYCZNE\ZESTAW 4\ZADANIE 1\EIGEN\SRC\SVD\UPPERBIDIAGONALIZATION.H
C:\USERS\JAKUB\DROPBOX\VS PROJECTS\MATODY NUMERYCZNE\ZESTAW 4\ZADANIE 1\EIGEN\SRC\SVD\SVDBASE.H
C:\USERS\JAKUB\DROPBOX\VS PROJECTS\MATODY NUMERYCZNE\ZESTAW 4\ZADANIE 1\EIGEN\SRC\SVD\JACOBISVD.H
C:\USERS\JAKUB\DROPBOX\VS PROJECTS\MATODY NUMERYCZNE\ZESTAW 4\ZADANIE 1\EIGEN\SRC\SVD\BDCSVD.H
C:\USERS\JAKUB\DROPBOX\VS PROJECTS\MATODY NUMERYCZNE\ZESTAW 4\ZADANIE 1\EIGEN\GEOMETRY
C:\USERS\JAKUB\DROPBOX\VS PROJECTS\MATODY NUMERYCZNE\ZESTAW 4\ZADANIE 1\EIGEN\SRC\GEOMETRY\ORTHOMETHODS.H
C:\USERS\JAKUB\DROPBOX\VS PROJECTS\MATODY NUMERYCZNE\ZESTAW 4\ZADANIE 1\EIGEN\SRC\GEOMETRY\EULERANGLES.H
C:\USERS\JAKUB\DROPBOX\VS PROJECTS\MATODY NUMERYCZNE\ZESTAW 4\ZADANIE 1\EIGEN\SRC\GEOMETRY\HOMOGENEOUS.H
C:\USERS\JAKUB\DROPBOX\VS PROJECTS\MATODY NUMERYCZNE\ZESTAW 4\ZADANIE 1\EIGEN\SRC\GEOMETRY\ROTATIONBASE.H
C:\USERS\JAKUB\DROPBOX\VS PROJECTS\MATODY NUMERYCZNE\ZESTAW 4\ZADANIE 1\EIGEN\SRC\GEOMETRY\ROTATION2D.H
C:\USERS\JAKUB\DROPBOX\VS PROJECTS\MATODY NUMERYCZNE\ZESTAW 4\ZADANIE 1\EIGEN\SRC\GEOMETRY\QUATERNION.H
C:\USERS\JAKUB\DROPBOX\VS PROJECTS\MATODY NUMERYCZNE\ZESTAW 4\ZADANIE 1\EIGEN\SRC\GEOMETRY\ANGLEAXIS.H
C:\USERS\JAKUB\DROPBOX\VS PROJECTS\MATODY NUMERYCZNE\ZESTAW 4\ZADANIE 1\EIGEN\SRC\GEOMETRY\TRANSFORM.H
C:\USERS\JAKUB\DROPBOX\VS PROJECTS\MATODY NUMERYCZNE\ZESTAW 4\ZADANIE 1\EIGEN\SRC\GEOMETRY\TRANSLATION.H
C:\USERS\JAKUB\DROPBOX\VS PROJECTS\MATODY NUMERYCZNE\ZESTAW 4\ZADANIE 1\EIGEN\SRC\GEOMETRY\SCALING.H
C:\USERS\JAKUB\DROPBOX\VS PROJECTS\MATODY NUMERYCZNE\ZESTAW 4\ZADANIE 1\EIGEN\SRC\GEOMETRY\HYPERPLANE.H
C:\USERS\JAKUB\DROPBOX\VS PROJECTS\MATODY NUMERYCZNE\ZESTAW 4\ZADANIE 1\EIGEN\SRC\GEOMETRY\PARAMETRIZEDLINE.H
C:\USERS\JAKUB\DROPBOX\VS PROJECTS\MATODY NUMERYCZNE\ZESTAW 4\ZADANIE 1\EIGEN\SRC\GEOMETRY\ALIGNEDBOX.H
C:\USERS\JAKUB\DROPBOX\VS PROJECTS\MATODY NUMERYCZNE\ZESTAW 4\ZADANIE 1\EIGEN\SRC\GEOMETRY\UMEYAMA.H
C:\USERS\JAKUB\DROPBOX\VS PROJECTS\MATODY NUMERYCZNE\ZESTAW 4\ZADANIE 1\EIGEN\SRC\GEOMETRY\ARCH\GEOMETRY_SSE.H
C:\USERS\JAKUB\DROPBOX\VS PROJECTS\MATODY NUMERYCZNE\ZESTAW 4\ZADANIE 1\EIGEN\EIGENVALUES
C:\USERS\JAKUB\DROPBOX\VS PROJECTS\MATODY NUMERYCZNE\ZESTAW 4\ZADANIE 1\EIGEN\SRC\EIGENVALUES\TRIDIAGONALIZATION.H
C:\USERS\JAKUB\DROPBOX\VS PROJECTS\MATODY NUMERYCZNE\ZESTAW 4\ZADANIE 1\EIGEN\SRC\EIGENVALUES\REALSCHUR.H
C:\USERS\JAKUB\DROPBOX\VS PROJECTS\MATODY NUMERYCZNE\ZESTAW 4\ZADANIE 1\EIGEN\SRC\EIGENVALUES\HESSENBERGDECOMPOSITION.H
C:\USERS\JAKUB\DROPBOX\VS PROJECTS\MATODY NUMERYCZNE\ZESTAW 4\ZADANIE 1\EIGEN\SRC\EIGENVALUES\EIGENSOLVER.H
C:\USERS\JAKUB\DROPBOX\VS PROJECTS\MATODY NUMERYCZNE\ZESTAW 4\ZADANIE 1\EIGEN\SRC\EIGENVALUES\SELFADJOINTEIGENSOLVER.H
C:\USERS\JAKUB\DROPBOX\VS PROJECTS\MATODY NUMERYCZNE\ZESTAW 4\ZADANIE 1\EIGEN\SRC\EIGENVALUES\GENERALIZEDSELFADJOINTEIGENSOLVER.H
C:\USERS\JAKUB\DROPBOX\VS PROJECTS\MATODY NUMERYCZNE\ZESTAW 4\ZADANIE 1\EIGEN\SRC\EIGENVALUES\COMPLEXSCHUR.H
C:\USERS\JAKUB\DROPBOX\VS PROJECTS\MATODY NUMERYCZNE\ZESTAW 4\ZADANIE 1\EIGEN\SRC\EIGENVALUES\COMPLEXEIGENSOLVER.H
C:\USERS\JAKUB\DROPBOX\VS PROJECTS\MATODY NUMERYCZNE\ZESTAW 4\ZADANIE 1\EIGEN\SRC\EIGENVALUES\REALQZ.H
C:\USERS\JAKUB\DROPBOX\VS PROJECTS\MATODY NUMERYCZNE\ZESTAW 4\ZADANIE 1\EIGEN\SRC\EIGENVALUES\GENERALIZEDEIGENSOLVER.H
C:\USERS\JAKUB\DROPBOX\VS PROJECTS\MATODY NUMERYCZNE\ZESTAW 4\ZADANIE 1\EIGEN\SRC\EIGENVALUES\MATRIXBASEEIGENVALUES.H
C:\USERS\JAKUB\DROPBOX\VS PROJECTS\MATODY NUMERYCZNE\ZESTAW 4\ZADANIE 1\EIGEN\SPARSE
C:\USERS\JAKUB\DROPBOX\VS PROJECTS\MATODY NUMERYCZNE\ZESTAW 4\ZADANIE 1\EIGEN\SPARSECORE
C:\PROGRAM FILES (X86)\MICROSOFT VISUAL STUDIO 14.0\VC\INCLUDE\VECTOR
C:\PROGRAM FILES (X86)\MICROSOFT VISUAL STUDIO 14.0\VC\INCLUDE\MAP
C:\PROGRAM FILES (X86)\MICROSOFT VISUAL STUDIO 14.0\VC\INCLUDE\XTREE
C:\USERS\JAKUB\DROPBOX\VS PROJECTS\MATODY NUMERYCZNE\ZESTAW 4\ZADANIE 1\EIGEN\SRC\SPARSECORE\SPARSEUTIL.H
C:\USERS\JAKUB\DROPBOX\VS PROJECTS\MATODY NUMERYCZNE\ZESTAW 4\ZADANIE 1\EIGEN\SRC\SPARSECORE\SPARSEMATRIXBASE.H
C:\USERS\JAKUB\DROPBOX\VS PROJECTS\MATODY NUMERYCZNE\ZESTAW 4\ZADANIE 1\EIGEN\SRC\SPARSECORE\SPARSEASSIGN.H
C:\USERS\JAKUB\DROPBOX\VS PROJECTS\MATODY NUMERYCZNE\ZESTAW 4\ZADANIE 1\EIGEN\SRC\SPARSECORE\COMPRESSEDSTORAGE.H
C:\USERS\JAKUB\DROPBOX\VS PROJECTS\MATODY NUMERYCZNE\ZESTAW 4\ZADANIE 1\EIGEN\SRC\SPARSECORE\AMBIVECTOR.H
C:\USERS\JAKUB\DROPBOX\VS PROJECTS\MATODY NUMERYCZNE\ZESTAW 4\ZADANIE 1\EIGEN\SRC\SPARSECORE\SPARSECOMPRESSEDBASE.H
C:\USERS\JAKUB\DROPBOX\VS PROJECTS\MATODY NUMERYCZNE\ZESTAW 4\ZADANIE 1\EIGEN\SRC\SPARSECORE\SPARSEMATRIX.H
C:\USERS\JAKUB\DROPBOX\VS PROJECTS\MATODY NUMERYCZNE\ZESTAW 4\ZADANIE 1\EIGEN\SRC\SPARSECORE\SPARSEMAP.H
C:\USERS\JAKUB\DROPBOX\VS PROJECTS\MATODY NUMERYCZNE\ZESTAW 4\ZADANIE 1\EIGEN\SRC\SPARSECORE\MAPPEDSPARSEMATRIX.H
C:\USERS\JAKUB\DROPBOX\VS PROJECTS\MATODY NUMERYCZNE\ZESTAW 4\ZADANIE 1\EIGEN\SRC\SPARSECORE\SPARSEVECTOR.H
C:\USERS\JAKUB\DROPBOX\VS PROJECTS\MATODY NUMERYCZNE\ZESTAW 4\ZADANIE 1\EIGEN\SRC\SPARSECORE\SPARSEREF.H
C:\USERS\JAKUB\DROPBOX\VS PROJECTS\MATODY NUMERYCZNE\ZESTAW 4\ZADANIE 1\EIGEN\SRC\SPARSECORE\SPARSECWISEUNARYOP.H
C:\USERS\JAKUB\DROPBOX\VS PROJECTS\MATODY NUMERYCZNE\ZESTAW 4\ZADANIE 1\EIGEN\SRC\SPARSECORE\SPARSECWISEBINARYOP.H
C:\USERS\JAKUB\DROPBOX\VS PROJECTS\MATODY NUMERYCZNE\ZESTAW 4\ZADANIE 1\EIGEN\SRC\SPARSECORE\SPARSETRANSPOSE.H
C:\USERS\JAKUB\DROPBOX\VS PROJECTS\MATODY NUMERYCZNE\ZESTAW 4\ZADANIE 1\EIGEN\SRC\SPARSECORE\SPARSEBLOCK.H
C:\USERS\JAKUB\DROPBOX\VS PROJECTS\MATODY NUMERYCZNE\ZESTAW 4\ZADANIE 1\EIGEN\SRC\SPARSECORE\SPARSEDOT.H
C:\USERS\JAKUB\DROPBOX\VS PROJECTS\MATODY NUMERYCZNE\ZESTAW 4\ZADANIE 1\EIGEN\SRC\SPARSECORE\SPARSEREDUX.H
C:\USERS\JAKUB\DROPBOX\VS PROJECTS\MATODY NUMERYCZNE\ZESTAW 4\ZADANIE 1\EIGEN\SRC\SPARSECORE\SPARSEVIEW.H
C:\USERS\JAKUB\DROPBOX\VS PROJECTS\MATODY NUMERYCZNE\ZESTAW 4\ZADANIE 1\EIGEN\SRC\SPARSECORE\SPARSEDIAGONALPRODUCT.H
C:\USERS\JAKUB\DROPBOX\VS PROJECTS\MATODY NUMERYCZNE\ZESTAW 4\ZADANIE 1\EIGEN\SRC\SPARSECORE\CONSERVATIVESPARSESPARSEPRODUCT.H
C:\USERS\JAKUB\DROPBOX\VS PROJECTS\MATODY NUMERYCZNE\ZESTAW 4\ZADANIE 1\EIGEN\SRC\SPARSECORE\SPARSESPARSEPRODUCTWITHPRUNING.H
C:\USERS\JAKUB\DROPBOX\VS PROJECTS\MATODY NUMERYCZNE\ZESTAW 4\ZADANIE 1\EIGEN\SRC\SPARSECORE\SPARSEPRODUCT.H
C:\USERS\JAKUB\DROPBOX\VS PROJECTS\MATODY NUMERYCZNE\ZESTAW 4\ZADANIE 1\EIGEN\SRC\SPARSECORE\SPARSEDENSEPRODUCT.H
C:\USERS\JAKUB\DROPBOX\VS PROJECTS\MATODY NUMERYCZNE\ZESTAW 4\ZADANIE 1\EIGEN\SRC\SPARSECORE\SPARSESELFADJOINTVIEW.H
C:\USERS\JAKUB\DROPBOX\VS PROJECTS\MATODY NUMERYCZNE\ZESTAW 4\ZADANIE 1\EIGEN\SRC\SPARSECORE\SPARSETRIANGULARVIEW.H
C:\USERS\JAKUB\DROPBOX\VS PROJECTS\MATODY NUMERYCZNE\ZESTAW 4\ZADANIE 1\EIGEN\SRC\SPARSECORE\TRIANGULARSOLVER.H
C:\USERS\JAKUB\DROPBOX\VS PROJECTS\MATODY NUMERYCZNE\ZESTAW 4\ZADANIE 1\EIGEN\SRC\SPARSECORE\SPARSEPERMUTATION.H
C:\USERS\JAKUB\DROPBOX\VS PROJECTS\MATODY NUMERYCZNE\ZESTAW 4\ZADANIE 1\EIGEN\SRC\SPARSECORE\SPARSEFUZZY.H
C:\USERS\JAKUB\DROPBOX\VS PROJECTS\MATODY NUMERYCZNE\ZESTAW 4\ZADANIE 1\EIGEN\SRC\SPARSECORE\SPARSESOLVERBASE.H
C:\USERS\JAKUB\DROPBOX\VS PROJECTS\MATODY NUMERYCZNE\ZESTAW 4\ZADANIE 1\EIGEN\ORDERINGMETHODS
C:\USERS\JAKUB\DROPBOX\VS PROJECTS\MATODY NUMERYCZNE\ZESTAW 4\ZADANIE 1\EIGEN\SRC\ORDERINGMETHODS\AMD.H
C:\USERS\JAKUB\DROPBOX\VS PROJECTS\MATODY NUMERYCZNE\ZESTAW 4\ZADANIE 1\EIGEN\SRC\CORE\UTIL\NONMPL2.H
C:\USERS\JAKUB\DROPBOX\VS PROJECTS\MATODY NUMERYCZNE\ZESTAW 4\ZADANIE 1\EIGEN\SRC\ORDERINGMETHODS\ORDERING.H
C:\USERS\JAKUB\DROPBOX\VS PROJECTS\MATODY NUMERYCZNE\ZESTAW 4\ZADANIE 1\EIGEN\SRC\ORDERINGMETHODS\EIGEN_COLAMD.H
C:\USERS\JAKUB\DROPBOX\VS PROJECTS\MATODY NUMERYCZNE\ZESTAW 4\ZADANIE 1\EIGEN\SPARSECHOLESKY
C:\USERS\JAKUB\DROPBOX\VS PROJECTS\MATODY NUMERYCZNE\ZESTAW 4\ZADANIE 1\EIGEN\SRC\SPARSECHOLESKY\SIMPLICIALCHOLESKY.H
C:\USERS\JAKUB\DROPBOX\VS PROJECTS\MATODY NUMERYCZNE\ZESTAW 4\ZADANIE 1\EIGEN\SRC\SPARSECHOLESKY\SIMPLICIALCHOLESKY_IMPL.H
C:\USERS\JAKUB\DROPBOX\VS PROJECTS\MATODY NUMERYCZNE\ZESTAW 4\ZADANIE 1\EIGEN\SPARSELU
C:\USERS\JAKUB\DROPBOX\VS PROJECTS\MATODY NUMERYCZNE\ZESTAW 4\ZADANIE 1\EIGEN\SRC\SPARSELU\SPARSELU_GEMM_KERNEL.H
C:\USERS\JAKUB\DROPBOX\VS PROJECTS\MATODY NUMERYCZNE\ZESTAW 4\ZADANIE 1\EIGEN\SRC\SPARSELU\SPARSELU_STRUCTS.H
C:\USERS\JAKUB\DROPBOX\VS PROJECTS\MATODY NUMERYCZNE\ZESTAW 4\ZADANIE 1\EIGEN\SRC\SPARSELU\SPARSELU_SUPERNODALMATRIX.H
C:\USERS\JAKUB\DROPBOX\VS PROJECTS\MATODY NUMERYCZNE\ZESTAW 4\ZADANIE 1\EIGEN\SRC\SPARSELU\SPARSELUIMPL.H
C:\USERS\JAKUB\DROPBOX\VS PROJECTS\MATODY NUMERYCZNE\ZESTAW 4\ZADANIE 1\EIGEN\SRC\SPARSECORE\SPARSECOLETREE.H
C:\USERS\JAKUB\DROPBOX\VS PROJECTS\MATODY NUMERYCZNE\ZESTAW 4\ZADANIE 1\EIGEN\SRC\SPARSELU\SPARSELU_MEMORY.H
C:\USERS\JAKUB\DROPBOX\VS PROJECTS\MATODY NUMERYCZNE\ZESTAW 4\ZADANIE 1\EIGEN\SRC\SPARSELU\SPARSELU_HEAP_RELAX_SNODE.H
C:\USERS\JAKUB\DROPBOX\VS PROJECTS\MATODY NUMERYCZNE\ZESTAW 4\ZADANIE 1\EIGEN\SRC\SPARSELU\SPARSELU_RELAX_SNODE.H
C:\USERS\JAKUB\DROPBOX\VS PROJECTS\MATODY NUMERYCZNE\ZESTAW 4\ZADANIE 1\EIGEN\SRC\SPARSELU\SPARSELU_PIVOTL.H
C:\USERS\JAKUB\DROPBOX\VS PROJECTS\MATODY NUMERYCZNE\ZESTAW 4\ZADANIE 1\EIGEN\SRC\SPARSELU\SPARSELU_PANEL_DFS.H
C:\USERS\JAKUB\DROPBOX\VS PROJECTS\MATODY NUMERYCZNE\ZESTAW 4\ZADANIE 1\EIGEN\SRC\SPARSELU\SPARSELU_KERNEL_BMOD.H
C:\USERS\JAKUB\DROPBOX\VS PROJECTS\MATODY NUMERYCZNE\ZESTAW 4\ZADANIE 1\EIGEN\SRC\SPARSELU\SPARSELU_PANEL_BMOD.H
C:\USERS\JAKUB\DROPBOX\VS PROJECTS\MATODY NUMERYCZNE\ZESTAW 4\ZADANIE 1\EIGEN\SRC\SPARSELU\SPARSELU_COLUMN_DFS.H
C:\USERS\JAKUB\DROPBOX\VS PROJECTS\MATODY NUMERYCZNE\ZESTAW 4\ZADANIE 1\EIGEN\SRC\SPARSELU\SPARSELU_COLUMN_BMOD.H
C:\USERS\JAKUB\DROPBOX\VS PROJECTS\MATODY NUMERYCZNE\ZESTAW 4\ZADANIE 1\EIGEN\SRC\SPARSELU\SPARSELU_COPY_TO_UCOL.H
C:\USERS\JAKUB\DROPBOX\VS PROJECTS\MATODY NUMERYCZNE\ZESTAW 4\ZADANIE 1\EIGEN\SRC\SPARSELU\SPARSELU_PRUNEL.H
C:\USERS\JAKUB\DROPBOX\VS PROJECTS\MATODY NUMERYCZNE\ZESTAW 4\ZADANIE 1\EIGEN\SRC\SPARSELU\SPARSELU_UTILS.H
C:\USERS\JAKUB\DROPBOX\VS PROJECTS\MATODY NUMERYCZNE\ZESTAW 4\ZADANIE 1\EIGEN\SRC\SPARSELU\SPARSELU.H
C:\USERS\JAKUB\DROPBOX\VS PROJECTS\MATODY NUMERYCZNE\ZESTAW 4\ZADANIE 1\EIGEN\SPARSEQR
C:\USERS\JAKUB\DROPBOX\VS PROJECTS\MATODY NUMERYCZNE\ZESTAW 4\ZADANIE 1\EIGEN\SRC\SPARSEQR\SPARSEQR.H
C:\USERS\JAKUB\DROPBOX\VS PROJECTS\MATODY NUMERYCZNE\ZESTAW 4\ZADANIE 1\EIGEN\ITERATIVELINEARSOLVERS
C:\USERS\JAKUB\DROPBOX\VS PROJECTS\MATODY NUMERYCZNE\ZESTAW 4\ZADANIE 1\EIGEN\SRC\ITERATIVELINEARSOLVERS\SOLVEWITHGUESS.H
C:\USERS\JAKUB\DROPBOX\VS PROJECTS\MATODY NUMERYCZNE\ZESTAW 4\ZADANIE 1\EIGEN\SRC\ITERATIVELINEARSOLVERS\ITERATIVESOLVERBASE.H
C:\USERS\JAKUB\DROPBOX\VS PROJECTS\MATODY NUMERYCZNE\ZESTAW 4\ZADANIE 1\EIGEN\SRC\ITERATIVELINEARSOLVERS\BASICPRECONDITIONERS.H
C:\USERS\JAKUB\DROPBOX\VS PROJECTS\MATODY NUMERYCZNE\ZESTAW 4\ZADANIE 1\EIGEN\SRC\ITERATIVELINEARSOLVERS\CONJUGATEGRADIENT.H
C:\USERS\JAKUB\DROPBOX\VS PROJECTS\MATODY NUMERYCZNE\ZESTAW 4\ZADANIE 1\EIGEN\SRC\ITERATIVELINEARSOLVERS\LEASTSQUARECONJUGATEGRADIENT.H
C:\USERS\JAKUB\DROPBOX\VS PROJECTS\MATODY NUMERYCZNE\ZESTAW 4\ZADANIE 1\EIGEN\SRC\ITERATIVELINEARSOLVERS\BICGSTAB.H
C:\USERS\JAKUB\DROPBOX\VS PROJECTS\MATODY NUMERYCZNE\ZESTAW 4\ZADANIE 1\EIGEN\SRC\ITERATIVELINEARSOLVERS\INCOMPLETELUT.H
C:\USERS\JAKUB\DROPBOX\VS PROJECTS\MATODY NUMERYCZNE\ZESTAW 4\ZADANIE 1\EIGEN\SRC\ITERATIVELINEARSOLVERS\INCOMPLETECHOLESKY.H
C:\PROGRAM FILES (X86)\MICROSOFT VISUAL STUDIO 14.0\VC\INCLUDE\LIST
C:\PROGRAM FILES (X86)\MICROSOFT VISUAL STUDIO 14.0\VC\BIN\MSPDBSRV.EXE
C:\PROGRAM FILES (X86)\MICROSOFT VISUAL STUDIO 14.0\VC\INCLUDE\IOMANIP
C:\PROGRAM FILES (X86)\MICROSOFT VISUAL STUDIO 14.0\VC\INCLUDE\XLOCMON
C:\PROGRAM FILES (X86)\MICROSOFT VISUAL STUDIO 14.0\VC\INCLUDE\XLOCTIME
C:\PROGRAM FILES (X86)\MICROSOFT VISUAL STUDIO 14.0\VC\INCLUDE\CTIME
C:\PROGRAM FILES (X86)\WINDOWS KITS\10\INCLUDE\10.0.10240.0\UCRT\TIME.H
C:\PROGRAM FILES (X86)\MICROSOFT VISUAL STUDIO 14.0\VC\INCLUDE\CHRONO
C:\PROGRAM FILES (X86)\MICROSOFT VISUAL STUDIO 14.0\VC\INCLUDE\RATIO
C:\PROGRAM FILES (X86)\MICROSOFT VISUAL STUDIO 14.0\VC\INCLUDE\THR\XTIMEC.H
C:\PROGRAM FILES (X86)\MICROSOFT VISUAL STUDIO 14.0\VC\INCLUDE\THR\XTHRCOMMON.H
C:\PROGRAM FILES (X86)\MICROSOFT VISUAL STUDIO 14.0\VC\INCLUDE\FSTREAM
