^C:\USERS\JAKUB\DROPBOX\VS PROJECTS\MATODY NUMERYCZNE\ZESTAW 3\ZADANIE 3.1\DEBUG\ZADANIE 3.1.OBJ
C:\USERS\JAKUB\DROPBOX\VS PROJECTS\MATODY NUMERYCZNE\ZESTAW 3\ZADANIE 3.1\DEBUG\ZADANIE 3.1.ILK
C:\USERS\JAKUB\DROPBOX\VS PROJECTS\MATODY NUMERYCZNE\ZESTAW 3\ZADANIE 3.1\DEBUG\ZADANIE 3.1.EXE
C:\USERS\JAKUB\DROPBOX\VS PROJECTS\MATODY NUMERYCZNE\ZESTAW 3\ZADANIE 3.1\DEBUG\ZADANIE 3.1.PDB
