X	Real	Linear	Polynominal	Tylor
0	0	0	0	0
0.0174533	0.0174524	0.0166667	0.0173824	0.0174524
0.0349066	0.0348995	0.0333333	0.0347713	0.0348995
0.0523599	0.052336	0.05	0.0521603	0.052336
0.0698132	0.0697565	0.0666667	0.0695431	0.0697565
0.0872665	0.0871557	0.0833333	0.0869134	0.0871557
0.10472	0.104528	0.1	0.104265	0.104528
0.122173	0.121869	0.116667	0.121591	0.121869
0.139626	0.139173	0.133333	0.138887	0.139173
0.15708	0.156434	0.15	0.156146	0.156434
0.174533	0.173648	0.166667	0.173361	0.173648
0.191986	0.190809	0.183333	0.190527	0.190809
0.20944	0.207912	0.2	0.207639	0.207912
0.226893	0.224951	0.216667	0.22469	0.224951
0.244346	0.241922	0.233333	0.241675	0.241922
0.261799	0.258819	0.25	0.258588	0.258819
0.279253	0.275637	0.266667	0.275423	0.275637
0.296706	0.292372	0.283333	0.292176	0.292372
0.314159	0.309017	0.3	0.308839	0.309017
0.331613	0.325568	0.316667	0.325409	0.325568
0.349066	0.34202	0.333333	0.34188	0.34202
0.366519	0.358368	0.35	0.358246	0.358368
0.383972	0.374607	0.366667	0.374502	0.374607
0.401426	0.390731	0.383333	0.390644	0.390731
0.418879	0.406737	0.4	0.406665	0.406737
0.436332	0.422618	0.416667	0.422562	0.422618
0.453786	0.438371	0.433333	0.438329	0.438371
0.471239	0.45399	0.45	0.453961	0.45399
0.488692	0.469472	0.466667	0.469453	0.469472
0.506145	0.48481	0.483333	0.484801	0.48481
0.523599	0.5	0.5	0.5	0.5
0.541052	0.515038	0.513807	0.515045	0.515038
0.558505	0.529919	0.527614	0.529932	0.529919
0.575959	0.544639	0.541421	0.544657	0.544639
0.593412	0.559193	0.555228	0.559214	0.559193
0.610865	0.573576	0.569036	0.5736	0.573576
0.628319	0.587785	0.582843	0.58781	0.587785
0.645772	0.601815	0.59665	0.601839	0.601815
0.663225	0.615661	0.610457	0.615685	0.615661
0.680678	0.62932	0.624264	0.629342	0.62932
0.698132	0.642788	0.638071	0.642807	0.642788
0.715585	0.656059	0.651878	0.656075	0.656059
0.733038	0.669131	0.665685	0.669143	0.669131
0.750492	0.681998	0.679493	0.682007	0.681998
0.767945	0.694658	0.6933	0.694663	0.694658
0.785398	0.707107	0.707107	0.707107	0.707107
0.802851	0.71934	0.717701	0.719336	0.71934
0.820305	0.731354	0.728296	0.731345	0.731354
0.837758	0.743145	0.738891	0.743133	0.743145
0.855211	0.75471	0.749485	0.754694	0.75471
0.872665	0.766044	0.76008	0.766026	0.766044
0.890118	0.777146	0.770674	0.777125	0.777146
0.907571	0.788011	0.781269	0.787988	0.788011
0.925025	0.798636	0.791863	0.798612	0.798636
0.942478	0.809017	0.802458	0.808994	0.809017
0.959931	0.819152	0.813053	0.81913	0.819152
0.977384	0.829038	0.823647	0.829018	0.829038
0.994838	0.838671	0.834242	0.838654	0.838671
1.01229	0.848048	0.844836	0.848036	0.848048
1.02974	0.857167	0.855431	0.857161	0.857167
1.0472	0.866025	0.866025	0.866025	0.866025
1.06465	0.87462	0.870491	0.874628	0.87462
1.0821	0.882948	0.874957	0.882964	0.882948
1.09956	0.891007	0.879423	0.891033	0.891007
1.11701	0.898794	0.883889	0.898832	0.898794
1.13446	0.906308	0.888355	0.906358	0.906308
1.15192	0.913545	0.89282	0.913609	0.913545
1.16937	0.920505	0.897286	0.920582	0.920505
1.18682	0.927184	0.901752	0.927275	0.927184
1.20428	0.93358	0.906218	0.933687	0.93358
1.22173	0.939693	0.910684	0.939814	0.939693
1.23918	0.945519	0.915149	0.945655	0.945519
1.25664	0.951057	0.919615	0.951208	0.951057
1.27409	0.956305	0.924081	0.956471	0.956305
1.29154	0.961262	0.928547	0.961442	0.961262
1.309	0.965926	0.933013	0.96612	0.965926
1.32645	0.970296	0.937479	0.970502	0.970296
1.3439	0.97437	0.941944	0.974586	0.97437
1.36136	0.978148	0.94641	0.978372	0.978148
1.37881	0.981627	0.950876	0.981858	0.981627
1.39626	0.984808	0.955342	0.985042	0.984808
1.41372	0.987688	0.959808	0.987922	0.987688
1.43117	0.990268	0.964273	0.990498	0.990268
1.44862	0.992546	0.968739	0.992768	0.992546
1.46608	0.994522	0.973205	0.994731	0.994522
1.48353	0.996195	0.977671	0.996386	0.996195
1.50098	0.997564	0.982137	0.997732	0.997564
1.51844	0.99863	0.986603	0.998767	0.99863
1.53589	0.999391	0.991068	0.99949	0.999391
1.55334	0.999848	0.995534	0.999902	0.999848
