^C:\USERS\JAKUB\DROPBOX\VS PROJECTS\MATODY NUMERYCZNE\ZESTAW 1\ZADANIE 1\ZADANIE_1.CPP
C:\USERS\JAKUB\DROPBOX\VS PROJECTS\MATODY NUMERYCZNE\ZESTAW 1\ZADANIE 1\DEBUG\VC140.PDB
C:\USERS\JAKUB\DROPBOX\VS PROJECTS\MATODY NUMERYCZNE\ZESTAW 1\ZADANIE 1\DEBUG\VC140.IDB
C:\USERS\JAKUB\DROPBOX\VS PROJECTS\MATODY NUMERYCZNE\ZESTAW 1\ZADANIE 1\DEBUG\ZADANIE_1.OBJ
