^C:\USERS\JAKUB\DROPBOX\VS PROJECTS\MATODY NUMERYCZNE\ZESTAW 2\ZADANIE 1\DEBUG\ZADANIE 1.OBJ
C:\USERS\JAKUB\DROPBOX\VS PROJECTS\MATODY NUMERYCZNE\ZESTAW 2\ZADANIE 1\DEBUG\ZADANIE 1.ILK
C:\USERS\JAKUB\DROPBOX\VS PROJECTS\MATODY NUMERYCZNE\ZESTAW 2\ZADANIE 1\DEBUG\ZADANIE 1.EXE
C:\USERS\JAKUB\DROPBOX\VS PROJECTS\MATODY NUMERYCZNE\ZESTAW 2\ZADANIE 1\DEBUG\ZADANIE 1.PDB
^F:\REPOZYTORIA\METODY-NUMERYCZNE\ZESTAW 2\ZADANIE 1\DEBUG\ZADANIE 1.OBJ
F:\REPOZYTORIA\METODY-NUMERYCZNE\ZESTAW 2\ZADANIE 1\DEBUG\ZADANIE 1.ILK
F:\REPOZYTORIA\METODY-NUMERYCZNE\ZESTAW 2\ZADANIE 1\DEBUG\ZADANIE 1.EXE
F:\REPOZYTORIA\METODY-NUMERYCZNE\ZESTAW 2\ZADANIE 1\DEBUG\ZADANIE 1.PDB
